{
  "cviceni": {
    "version": {
      "global": "<%= version %>",
      "content": 5
    },
    "katalog": [
      "test",
      "public"
    ],
    "language": "cs",
    "slug": "jak-si-pripominame-listopad-na-albertove",
    "nazev": "Jak si připomínáme Listopad na Albertově?",
    "autor": [
      "Vojtěch Ripka"
    ],
    "klicovaSlova": {
      "rvp": [
        "vznik České republiky"
      ],
      "koncept": [
        "vzpomínková kultura",
        "občanská společnost"
      ],
      "b4": [
        "vztah k minulosti"
      ],
      "historylab": [
        "diskutujeme"
      ]
    },
    "casovaOsa": {
      "roky": [
        2014
      ],
      "epochy": [
        {
          "nazev": "ceska",
          "obdobi": [
            "Česká republika v integrující se Evropě"
          ]
        },
        {
          "nazev": "svetova",
          "obdobi": [
            ""
          ]
        }
      ]
    },
    "anotace": {
      "ucitel": "Žáci ve cvičení pracují s pamětními deskami z pražského Albertova. Prostřednictvím porovnání dvou rozdílných způsobů připomínání Listopadu poznávají nejednotnost pojetí minulosti v české společnosti. Cvičení lze použít v souvislosti s tématem společenského vnímáním historie, například v případě výročního vzpomínkového provozu.",
      "verejna": "Na pražském Albertově začala revoluce roku 1989. Jak se na ní vzpomíná? Napoví nám něco na první pohled zaprášeného a nudného, tedy pamětní plakety."
    },
    "trvani": 30,
    "obtiznost": "střední",
    "funkce": [
      "lupa",
      "svg",
      "text",
      "pretahovani",
      "znacky"
    ],
    "pdf": {
      "doporucenyPostup": "jak-si-pripominame-listopad-na-albertove.pdf"
    },
    "uvodniObrazek": "jak-si-pripominame-listopad-na-albertove/pic-02-1280w.jpg",
    "id": 43
  },
  "slajd": [
    {
      "zadani": {
        "hlavni": "Prohlédněte si umístění obou plaket na Albertově.",
        "rozsirujici": ""
      },
      "napoveda": {
        "aktivity": [
          "lupa"
        ],
        "text": "Při kliknutí levým tlačítkem do obrazu lupa přiblíží část obrazu ve&nbsp;výřezu."
      },
      "prameny": [
        "jak-si-pripominame-listopad-na-albertove/pic-00-1280w.jpg",
        "jak-si-pripominame-listopad-na-albertove/pic-01-1280w.jpg"
      ],
      "popisky": [
        "V těchto místech začalo odpoledne 17. listopadu 1989 povolené shromáždění studentů k připomenutí 50. výročí uzavření vysokých škol nacisty. Zdroj: ÚSD AV ČR",
        "Zdroj: Open Street Maps"
      ]
    },
    {
      "zadani": {
        "hlavni": "Fotografie přibližují obě plakety z Albertova. Prohlédněte si je.",
        "rozsirujici": ""
      },
      "napoveda": {
        "aktivity": [
          "lupa"
        ],
        "text": "Při kliknutí levým tlačítkem do obrazu lupa přiblíží část obrazu ve&nbsp;výřezu."
      },
      "prameny": [
        "jak-si-pripominame-listopad-na-albertove/pic-02-1280w.jpg",
        "jak-si-pripominame-listopad-na-albertove/pic-03-1024h.jpg"
      ],
      "popisky": [
        "Peter Oriešek: 17. XI. 1989, Albertov [pamětní deska], 2006. Albertov čp. 2038/6",
        "25. výročí sametové revoluce [pamětní deska], 2014. Albertov čp. 2049/7"
      ],
      "zpetnaVazba": {
        "text": "Mám prohlédnuto!"
      }
    },
    {
      "zadani": {
        "hlavni": "Přiřaďte vlastnosti deskám.",
        "rozsirujici": "Doplňte o vlastní postřehy."
      },
      "napoveda": {
        "aktivity": [
          "razeni",
          "svg"
        ],
        "text": "Pomocí drag and drop přesouvejte položky z nabídky do obrázku.<br> Do obrázku můžete také kreslit a zapisovat další informace."
      },
      "svg": {
        "nastaveni": {
          "layout": "vertikalni"
        },
        "soubory": [
          {
            "id": "svg-1",
            "soubor": "jak-si-pripominame-listopad-na-albertove/pic-02-1024w.jpg",
            "funkce": [
              "text",
              "znacky"
            ],
            "drop": true
          },
          {
            "id": "svg-2",
            "soubor": "jak-si-pripominame-listopad-na-albertove/pic-03-1024h.jpg",
            "funkce": [
              "text",
              "znacky"
            ],
            "drop": true
          }
        ],
        "pretahovani": {
          "id": "pretahovani-1",
          "items": [
            {
              "objekt": "autor neznámý",
              "medium": "tag"
            },
            {
              "objekt": "Peter Oriešek",
              "medium": "tag"
            },
            {
              "objekt": "dlouhý text",
              "medium": "tag"
            },
            {
              "objekt": "krátký text",
              "medium": "tag"
            },
            {
              "objekt": "žula",
              "medium": "tag"
            },
            {
              "objekt": "bronz",
              "medium": "tag"
            },
            {
              "objekt": "bez věnování",
              "medium": "tag"
            },
            {
              "objekt": "všem statečným občanům",
              "medium": "tag"
            }
          ]
        }
      },
      "popisky": [
        "Peter Oriešek: 17. XI. 1989, Albertov [pamětní deska], 2006. Albertov čp. 2038/6",
        "25. výročí sametové revoluce [pamětní deska], 2014. Albertov čp. 2049/7"
      ]
    },
    {
      "zadani": {
        "hlavni": "Proč jsou stejné události věnovány dvě pamětní desky?",
        "rozsirujici": ""
      },
      "napoveda": {
        "aktivity": [
          "text"
        ],
        "text": "Do boxu pro text zapisujete odpověď na otázku, nebo jiný komentář (dle zadání)."
      },
      "uzivatelskyText": {
        "layout": "velka-galerie",
        "otazky": [
          {
            "id": "text-1",
            "zadani": "Využijte nejdůležitější rozdíly, které jste nalezli.",
            "instrukce": "Myslím si, že…",
            "minDelka": 2,
            "maxDelka": 400
          }
        ],
        "galerie": [
          {
            "soubor": "jak-si-pripominame-listopad-na-albertove/pic-00-1280w.jpg",
            "popisek": "Zdroj: ÚSD AV ČR"
          },
          {
            "typ": "svg",
            "objekt": {
              "id": "svg-1-duplicated",
              "soubor": "jak-si-pripominame-listopad-na-albertove/pic-02-1024w.jpg",
              "duplikovat": [
                "svg-1"
              ]
            },
            "popisek": "Peter Oriešek: 17. XI. 1989, Albertov [pamětní deska], 2006. Albertov čp. 2038/6"
          },
          {
            "typ": "svg",
            "objekt": {
              "id": "svg-2-duplicated",
              "soubor": "jak-si-pripominame-listopad-na-albertove/pic-03-1024h.jpg",
              "duplikovat": [
                "svg-2"
              ]
            },
            "popisek": "25. výročí sametové revoluce [pamětní deska], 2014. Albertov čp. 2049/7"
          },
          {
            "soubor": "jak-si-pripominame-listopad-na-albertove/pic-01-1280w.jpg",
            "popisek": "Zdroj: Open Street Maps"
          }
        ]
      }
    },
    {
      "zadani": {
        "hlavni": "Ke které desce byste položili svíčku?",
        "rozsirujici": "Své rozhodnutí zdůvodněte."
      },
      "napoveda": {
        "aktivity": [
          "vyber",
          "text"
        ],
        "text": "Výběr provedete kliknutím na položku.<br>Do boxu pro text zapisujete odpověď na otázku, nebo jiný komentář (dle zadání)."
      },
      "vyber": {
        "id": "vyber-1",
        "nastaveni": {
          "layout": "horizontalni",
          "viceOdpovedi": false,
          "disableFeedback": true
        },
        "objekty": [
          {
            "objekt": "jak-si-pripominame-listopad-na-albertove/pic-02-1280w.jpg"
          },
          {
            "objekt": "jak-si-pripominame-listopad-na-albertove/pic-03-1024h.jpg"
          }
        ]
      },
      "uzivatelskyText": {
        "otazky": [
          {
            "id": "text-2",
            "zadani": "Desku jsem si vybral/a, protože…",
            "instrukce": "Odpověď…",
            "minDelka": 10,
            "maxDelka": 400
          }
        ]
      }
    }
  ]
}