{
  "cviceni": {
    "version": {
      "global": "<%= version %>",
      "content": 1
    },
    "language": "cs",
    "katalog": ["test"],
    "slug": "husitstvi-a-historici",
    "nazev": "Husitství a historici",
    "autor": ["Čeněk Pýcha"],
    "klicovaSlova": {
      "rvp": [],
      "koncept": [],
      "b4": [],
      "historylab": []
    },
    "casovaOsa": {
      "roky": [],
      "epochy": [
        {
          "nazev": "ceska",
          "obdobi": [
            ""
          ]
        },
        {
          "nazev": "svetova",
          "obdobi": [
            ""
          ]
        }
      ]
    },
    "anotace": {
      "ucitel": "",
      "verejna": "Cvičení se zabývá srovnáním dvou straších historiografických textů o husitství."
    },
    "trvani": 30,
    "obtiznost": "",
    "funkce": ["cteni", "text", "text-editor"],
    "uvodniObrazek": "husitstvi-a-historici/pic-00-1024h.jpg",
    "id": 54
  },
  "slajd": [
    {
      "zadani": {
        "hlavni": "Přečtěte si text.",
        "rozsirujici": "Označte části, které podle vašeho názoru patří do historiografie jako vědy, nebo do ní nepatří."
      },
      "napoveda": {
        "aktivity": ["text-editor"],
        "text": "Levým tlačítkem myši zabarvíte zvolené slovo nebo slovní spojení. Otevře se vám nabídka, v níž zvolíte označovanou kategorii. Křížkem lze označení smazat."
      },
      "textovyEditor": {
        "texty": [
          {
            "id": 0,
            "text": "text-00",
            "funkce": "zvyraznovani",
            "menu": [
              {
                "title": "Patří do vědy",
                "commandName": "nejedly-patri",
                "color": "red"
              },
              {
                "title": "Nepatří do vědy",
                "commandName": "nejedly-nepatri",
                "color": "orange"
              }
            ]
          }
        ]
      },
      "popisky": [
        "Zdeněk Nejedlý: Komunisté, dědici velkých tradic českého národa, 1946."
      ]
    },
    {
      "zadani": {
        "hlavni": "Přečtěte si druhý text.",
        "rozsirujici": "Označte části, které podle vašeho názoru patří do historiografie jako vědy, nebo do ní nepatří."
      },
      "napoveda": {
        "aktivity": ["text-editor"],
        "text": "Levým tlačítkem myši zabarvíte zvolené slovo nebo slovní spojení. Otevře se vám nabídka, v níž zvolíte označovanou kategorii. Křížkem lze označení smazat."
      },
      "textovyEditor": {
        "texty": [
          {
            "id": 1,
            "text": "text-01",
            "funkce": "zvyraznovani",
            "menu": [
              {
                "title": "Patří do vědy",
                "commandName": "pekar-patri",
                "color": "red"
              },
              {
                "title": "Nepatří do vědy",
                "commandName": "pekar-nepatri",
                "color": "orange"
              }
            ]
          }
        ]
      },
      "popisky": ["Josef Pekař: Jan Žižka, 1924."]
    },
    {
      "zadani": {
        "hlavni": "Srovnejte oba texty, využijte vámi vyznačené výrazy.",
        "rozsirujici": ""
      },
      "napoveda": {
        "aktivity": ["text"],
        "text": "Do boxu pro text zapisujete odpověď na otázku, nebo jiný komentář (dle zadání)."
      },
      "uzivatelskyText": {
        "novaTabulka": {
          "tabulky": [
            {
              "id": "nova-tabulka-1",
              "dataFrom": ["textovy-editor-0", "textovy-editor-1"],
              "columns": [
                {
                  "id": "uryvky",
                  "name": "",
                  "type": "",
                  "bg-color": "",
                  "values": []
                }
              ],
              "rows": [
                {
                  "id": "nejedly-patri",
                  "name": "Patří do vědy - Nejedlý",
                  "type": {
                    "name": "dup-text",
                    "type": "tag"
                  },
                  "bg-color": "",
                  "values": []
                },
                {
                  "id": "pekar-patri",
                  "name": "Patří do vědy - Pekař",
                  "type": {
                    "name": "dup-text",
                    "type": "tag"
                  },
                  "bg-color": "",
                  "values": []
                },
                {
                  "id": "nejedly-nepatri",
                  "name": "Nepatří do vědy - Nejedlý",
                  "type": {
                    "name": "dup-text",
                    "type": "tag"
                  },
                  "bg-color": "",
                  "values": []
                },
                {
                  "id": "pekar-nepatri",
                  "name": "Nepatří do vědy - Pekař",
                  "type": {
                    "name": "dup-text",
                    "type": "tag"
                  },
                  "bg-color": "",
                  "values": []
                }
              ]
            }
          ]
        },
        "otazky": [
          {
            "id": "text-1",
            "zadani": "Co mají oba texty podle vás společného?",
            "instrukce": "Myslím si, že…",
            "minDelka": 10,
            "maxDelka": 500
          },
          {
            "id": "text-2",
            "zadani": "V čem se texty podle vás liší?",
            "instrukce": "Myslím si, že…",
            "minDelka": 10,
            "maxDelka": 500
          }
        ]
      }
    },
    {
      "zadani": {
        "hlavni": "Dějiny a přítomnost historika.",
        "rozsirujici": ""
      },
      "napoveda": {
        "aktivity": ["text"],
        "text": "Do boxu pro text zapisujete odpověď na otázku, nebo jiný komentář (dle zadání)."
      },
      "uzivatelskyText": {
        "otazky": [
          {
            "id": "text-3",
            "zadani": "V obou textech hraje důležitou roli autor. Jak se to projevuje a jaký význam má podle vás autor v historiografickém textu?",
            "instrukce": "Myslím si, že…",
            "minDelka": 10,
            "maxDelka": 500
          }
        ]
      }
    }
  ]
}
