{
  "cviceni": {
    "version": {
      "global": "<%= version %>",
      "content": 3
    },
    "katalog": [
      "test",
      "public"
    ],
    "language": "cs",
    "slug": "promeny-mesta-mostu",
    "nazev": "Proměny města Mostu",
    "autor": [
      "Matěj Spurný"
    ],
    "klicovaSlova": {
      "rvp": [
        "Československo 70. léta",
        "technika"
      ],
      "koncept": [
        "člověk a životní prostředí"
      ],
      "b4": [
        "trvání a změna"
      ],
      "historylab": [
        "hledáme klíčové detaily"
      ]
    },
    "casovaOsa": {
      "roky": [
        1975
      ],
      "epochy": [
        {
          "nazev": "ceska",
          "obdobi": [
            "normalizace"
          ]
        },
        {
          "nazev": "svetova",
          "obdobi": [
            ""
          ]
        }
      ]
    },
    "anotace": {
      "ucitel": "Cvičení prostřednictvím fotografií Mostu ukazuje historickou změnu - zánik starého Mostu a zrod nového města. Žáci pomocí fotografických pramenů hledají odpovědi na otázky: Co se to děje s kostelem na fotografii? Proč byl někam přesouván? Příběh Mostu se dotýká celé řady témat (česko-německé soužití, vztah ke kulturnímu dědictví, postoj socialistického státu k občanům, urbanismus,enviromentální výchova, ekonomické zájmy aj.).",
      "verejna": "Vidět město zanikat a vznikat se nestane každý den. Přesně to však zažili obyvatelé města Most v sedmdesátých letech. Proč se tak stalo? Jaké to mělo dásledky? Prozkoumejte fotogarfie kostele a najděte odpovědi."
    },
    "trvani": 30,
    "obtiznost": "střední",
    "funkce": [
      "lupa",
      "text",
      "svg",
      "znacky"
    ],
    "pdf": {
      "doporucenyPostup": "promeny-mesta-mostu.pdf"
    },
    "uvodniObrazek": "promeny-mesta-mostu/pic-00-1280w.jpg",
    "id": 19
  },
  "slajd": [
    {
      "zadani": {
        "hlavni": "Prohlédněte si fotografii.",
        "rozsirujici": ""
      },
      "napoveda": {
        "aktivity": [
          "lupa"
        ],
        "text": "Při kliknutí levým tlačítkem do obrazu lupa přiblíží část obrazu ve výřezu."
      },
      "prameny": [
        "promeny-mesta-mostu/pic-00-1280w.jpg"
      ],
      "popisky": [
        "Most, 11. října 1975. Zdroj: SOkA Most, fotografický fond"
      ]
    },
    {
      "class": [
        "half-slide-previous"
      ],
      "zadani": {
        "hlavni": "Co se stalo s kostelem v Mostě?",
        "rozsirujici": "Označte důležité prvky na fotografii a popište je. Využijte další fotografie."
      },
      "napoveda": {
        "aktivity": [
          "svg"
        ],
        "text": "Kliknutím na snímek levým tlačítkem myši označujete bod. Nakliknutím na bod pravým tlačítkem otevřete menu s nabídkou úkonů: změnit barvu bodu, (T) doplnit textový komentář, (X) smazat nakliknutý objekt."
      },
      "svg": {
        "nastaveni": {
          "layout": "horizontalni"
        },
        "soubory": [
          {
            "id": "svg-1",
            "soubor": "promeny-mesta-mostu/pic-00-1024w.jpg",
            "funkce": [
              "znacky",
              "text"
            ]
          }
        ],
        "galerie": [
          {
            "soubor": "promeny-mesta-mostu/pic-01-1280w.jpg",
            "popisek": "Most, 11. října 1975. Zdroj: SOkA Most, fotografický fond"
          },
          {
            "soubor": "promeny-mesta-mostu/pic-02-1280w.jpg",
            "popisek": "Most, 11. října 1975. Zdroj: SOkA Most, fotografický fond"
          },
          {
            "soubor": "promeny-mesta-mostu/pic-03-1280w.jpg",
            "popisek": "Most, 11. října 1975. Zdroj: SOkA Most, fotografický fond"
          },
          {
            "soubor": "promeny-mesta-mostu/pic-04-1280w.jpg",
            "popisek": "Most, 11. října 1975. Zdroj: SOkA Most, fotografický fond"
          }
        ]
      }
    },
    {
      "class": [
        "half-slide-active"
      ],
      "zadani": {
        "hlavni": "Co se podle vás stalo s kostelem v Mostě?",
        "rozsirujici": ""
      },
      "napoveda": {
        "aktivity": [
          "text"
        ],
        "text": "Do boxu pro text zapisujete odpověď na otázku, nebo jiný komentář (dle zadání)."
      },
      "uzivatelskyText": {
        "otazky": [
          {
            "id": "text-1",
            "instrukce": "Myslím si, že…",
            "minDelka": 10,
            "maxDelka": 400
          }
        ]
      }
    },
    {
      "class": [
        "half-slide-previous"
      ],
      "zadani": {
        "hlavni": "Prozkoumejte další fotografii.",
        "rozsirujici": "Popište fotografii, všímejte si významných budov a krajiny."
      },
      "napoveda": {
        "aktivity": [
          "svg"
        ],
        "text": "Kliknutím na snímek levým tlačítkem myši označujete bod. Nakliknutím na bod pravým tlačítkem otevřete menu s nabídkou úkonů: změnit barvu bodu, (T) doplnit textový komentář, (X) smazat nakliknutý objekt."
      },
      "svg": {
        "soubory": [
          {
            "id": "svg-2",
            "soubor": "promeny-mesta-mostu/pic-05-1280w.jpg",
            "funkce": [
              "znacky",
              "text"
            ]
          }
        ]
      },
      "popisky": [
        "Pohled na starý Most a okolní výsypky, které ho obklopují, před r. 1965. Zdroj: NA Praha"
      ]
    },
    {
      "class": [
        "half-slide-active"
      ],
      "zadani": {
        "hlavni": "Prozkoumejte další fotografii.",
        "rozsirujici": "Popište fotografii, všímejte si významných budov a krajiny."
      },
      "napoveda": {
        "aktivity": [
          "svg"
        ],
        "text": "Kliknutím na snímek levým tlačítkem myši označujete bod. Nakliknutím na bod pravým tlačítkem otevřete menu s nabídkou úkonů: změnit barvu bodu, (T) doplnit textový komentář, (X) smazat nakliknutý objekt."
      },
      "svg": {
        "soubory": [
          {
            "id": "svg-3",
            "soubor": "promeny-mesta-mostu/pic-06-1280w.jpg",
            "funkce": [
              "znacky",
              "text"
            ]
          }
        ]
      },
      "popisky": [
        "Starým Mostem je přepravován těžební velkostroj, v pozadí panorama nového Mostu. Zdroj: Most 1932–1982. Ústí nad Labem: Severočeské nakladatelství, 1982"
      ]
    },
    {
      "zadani": {
        "hlavni": "Podařilo se vám z fotografií zjistit, co se dělo v Mostě okolo roku 1975?",
        "rozsirujici": ""
      },
      "napoveda": {
        "aktivity": [
          "text"
        ],
        "text": "Do boxu pro text zapisujete odpověď na otázku, nebo jiný komentář (dle zadání)."
      },
      "uzivatelskyText": {
        "otazky": [
          {
            "id": "text-2",
            "zadani": "Proč byl kostel v Mostě přesunut?",
            "instrukce": "Myslím si, že…",
            "minDelka": 10,
            "maxDelka": 400
          }
        ]
      }
    }
  ]
}