{
  "cviceni": {
    "version": {
      "global": "<%= version %>",
      "content": 2
    },
    "katalog": [
      "test",
      "public"
    ],
    "language": "cs",
    "slug": "jak-videli-zenu",
    "nazev": "Jak viděli ženu?",
    "autor": [
      "Jaroslav Pinkas"
    ],
    "klicovaSlova": {
      "rvp": [
        "Československo 50. léta"
      ],
      "koncept": [
        "gender",
        "propaganda"
      ],
      "b4": [
        "trvání a změna"
      ],
      "historylab": [
        "porovnáváme zdroje"
      ]
    },
    "casovaOsa": {
      "roky": [
        1948
      ],
      "epochy": [
        {
          "nazev": "ceska",
          "obdobi": [
            "poválečná doba a nástup komunismu"
          ]
        },
        {
          "nazev": "svetova",
          "obdobi": [
            ""
          ]
        }
      ]
    },
    "anotace": {
      "ucitel": "Cvičení seznamuje žáky s žánrem karikatury. Žáci analyzují dvě dvojice karikatur z humoristického časopisu Dikobraz z let 1948 a 1950, které ukazují obraz „nové ženy” dle představ komunistické ideologie. Žáci analyzují karikatury, hledají historické souvislosti, kladou otázky po dobovém smyslu zobrazení ženy a vnímají jeho historické proměny.",
      "verejna": "Zkusíte porozumět karikaturám z období stalinismu? Schválně, jestli vám přijdou vtipné. Pokusíme se s pomocí karikatur proniknout do tehdejších představ o roli ženy v komunistické společnosti. V čem se dobový obraz ženy liší od současnosti?"
    },
    "trvani": 35,
    "obtiznost": "střední",
    "funkce": [
      "lupa",
      "cteni",
      "text",
      "pretahovani",
      "svg",
      "znacky"
    ],
    "pdf": {
      "doporucenyPostup": "jak-videli-zenu.pdf"
    },
    "uvodniObrazek": "jak-videli-zenu/pic-00-1280w.jpg",
    "id": 66
  },
  "slajd": [
    {
      "zadani": {
        "hlavni": "Prohlédněte si karikatury.",
        "rozsirujici": ""
      },
      "napoveda": {
        "aktivity": [
          "lupa"
        ],
        "text": "Při kliknutí levým tlačítkem do obrazu lupa přiblíží část obrazu ve výřezu."
      },
      "prameny": [
        "jak-videli-zenu/pic-00-1280w.jpg",
        "jak-videli-zenu/pic-01-1280w.jpg"
      ],
      "popisky": [
        "Zdroj: Humoristický časopis Dikobraz IV./1948, č. 48",
        "Zdroj: Humoristický časopis Dikobraz VI./1950, č. 19"
      ]
    },
    {
      "zadani": {
        "hlavni": "Označte důležité prvky na karikaturách. Popište postavy a prostředí.",
        "rozsirujici": ""
      },
      "napoveda": {
        "aktivity": [
          "svg"
        ],
        "text": [
          "Kliknutím na snímek levým tlačítkem myši označujete bod. Nakliknutím na bod pravým tlačítkem otevřete menu s nabídkou úkonů: změnit barvu bodu, (T) doplnit textový komentář, (X) smazat nakliknutý objekt."
        ]
      },
      "svg": {
        "soubory": [
          {
            "id": "svg-1",
            "soubor": "jak-videli-zenu/pic-00-1024w.jpg",
            "funkce": [
              "text",
              "znacky"
            ]
          },
          {
            "id": "svg-2",
            "soubor": "jak-videli-zenu/pic-01-1024w.jpg",
            "funkce": [
              "text",
              "znacky"
            ]
          }
        ]
      },
      "popisky": [
        "Zdroj: Humoristický časopis Dikobraz IV./1948, č. 48",
        "Zdroj: Humoristický časopis Dikobraz VI./1950, č. 19"
      ]
    },
    {
      "zadani": {
        "hlavni": "Jaký je význam karikatury?",
        "rozsirujici": "Vybírejte z pojmů v nabídce."
      },
      "napoveda": {
        "aktivity": [
          "razeni",
          "svg"
        ],
        "text": "Pomocí drag and drop přesouvejte položky z nabídky do obrázku.<br> Do obrázku můžete také kreslit a zapisovat další informace."
      },
      "svg": {
        "nastaveni": {
          "layout": "vertikalni"
        },
        "pretahovani": {
          "id": "pretahovani-2",
          "items": [
            {
              "objekt": "práce",
              "medium": "tag"
            },
            {
              "objekt": "zábava",
              "medium": "tag"
            },
            {
              "objekt": "lenost",
              "medium": "tag"
            },
            {
              "objekt": "kolektiv",
              "medium": "tag"
            },
            {
              "objekt": "jedinec",
              "medium": "tag"
            },
            {
              "objekt": "prostota",
              "medium": "tag"
            },
            {
              "objekt": "radost",
              "medium": "tag"
            },
            {
              "objekt": "vzdělání",
              "medium": "tag"
            },
            {
              "objekt": "sexualita",
              "medium": "tag"
            },
            {
              "objekt": "západ",
              "medium": "tag"
            },
            {
              "objekt": "naše",
              "medium": "tag"
            },
            {
              "objekt": "cizí",
              "medium": "tag"
            }
          ]
        },
        "soubory": [
          {
            "id": "svg-3",
            "soubor": "jak-videli-zenu/pic-00-1024w.jpg",
            "duplikovat": [
              "svg-1"
            ],
            "funkce": [],
            "drop": true
          }
        ]
      },
      "popisky": [
        "Zdroj: Humoristický časopis Dikobraz IV./1948, č. 48"
      ]
    },
    {
      "zadani": {
        "hlavni": "Jaký je význam karikatury?",
        "rozsirujici": "Vybírejte z pojmů v nabídce."
      },
      "napoveda": {
        "aktivity": [
          "razeni",
          "svg"
        ],
        "text": "Pomocí drag and drop přesouvejte položky z nabídky do obrázku.<br> Do obrázku můžete také kreslit a zapisovat další informace."
      },
      "svg": {
        "nastaveni": {
          "layout": "vertikalni"
        },
        "pretahovani": {
          "id": "pretahovani-1",
          "items": [
            {
              "objekt": "práce",
              "medium": "tag"
            },
            {
              "objekt": "rovnost",
              "medium": "tag"
            },
            {
              "objekt": "tělo",
              "medium": "tag"
            },
            {
              "objekt": "obdiv",
              "medium": "tag"
            },
            {
              "objekt": "západ",
              "medium": "tag"
            },
            {
              "objekt": "uznání",
              "medium": "tag"
            },
            {
              "objekt": "vzrušení",
              "medium": "tag"
            },
            {
              "objekt": "sexualita",
              "medium": "tag"
            },
            {
              "objekt": "mateřství",
              "medium": "tag"
            },
            {
              "objekt": "touha",
              "medium": "tag"
            },
            {
              "objekt": "naše",
              "medium": "tag"
            },
            {
              "objekt": "cizí",
              "medium": "tag"
            },
            {
              "objekt": "konzum",
              "medium": "tag"
            }
          ]
        },
        "soubory": [
          {
            "id": "svg-4",
            "soubor": "jak-videli-zenu/pic-01-1024w.jpg",
            "duplikovat": [
              "svg-2"
            ],
            "funkce": [],
            "drop": true
          }
        ]
      },
      "popisky": [
        "Zdroj: Humoristický časopis Dikobraz VI./1950, č. 19"
      ]
    },
    {
      "zadani": {
        "hlavni": "Odpovězte na otázky.",
        "rozsirujici": ""
      },
      "napoveda": {
        "aktivity": [
          "text"
        ],
        "text": "Do boxu pro text zapisujete odpověď na otázku, nebo jiný komentář (dle zadání)."
      },
      "uzivatelskyText": {
        "layout": "velka-galerie",
        "galerie": [
          {
            "typ": "svg",
            "objekt": {
              "id": "svg-3-duplicated",
              "soubor": "jak-videli-zenu/pic-00-1024w.jpg",
              "duplikovat": [
                "svg-3"
              ]
            },
            "popiska": "Zdroj: Humoristický časopis Dikobraz IV./1948, č. 48"
          },
          {
            "typ": "svg",
            "objekt": {
              "id": "svg-4-duplicated",
              "soubor": "jak-videli-zenu/pic-01-1024w.jpg",
              "duplikovat": [
                "svg-4"
              ]
            },
            "popiska": "Zdroj: Humoristický časopis Dikobraz VI./1950, č. 19"
          }
        ],
        "otazky": [
          {
            "id": "text-1",
            "zadani": "Jakou společenskou roli ženy karikatury odsuzují a jakou hodnotí pozitivně?",
            "instrukce": "Myslím si, že…",
            "maxDelka": 400,
            "vyska": 6
          },
          {
            "id": "text-2",
            "zadani": "Jak hodnotíte tyto dobové představy dnes?",
            "instrukce": "Myslím si, že…",
            "maxDelka": 400,
            "vyska": 6
          }
        ]
      }
    }
  ]
}