{
  "cviceni": {
    "version": {
      "global": "<%= version %>",
      "content": 4
    },
    "katalog": [
      "test",
      "public"
    ],
    "language": "cs",
    "slug": "proc-byli-uneseni",
    "nazev": "Proč byli uneseni?",
    "autor": [
      "Kamil Činátl"
    ],
    "klicovaSlova": {
      "rvp": [
        "střetávání západního a východního bloku"
      ],
      "koncept": [
        "propaganda"
      ],
      "b4": [
        "příčiny a důsledky"
      ],
      "historylab": [
        "tvoříme"
      ]
    },
    "casovaOsa": {
      "roky": [
        1983
      ],
      "epochy": [
        {
          "nazev": "ceska",
          "obdobi": [
            "Normalizace"
          ]
        },
        {
          "nazev": "svetova",
          "obdobi": [
            "Studená válka a rozpad koloniálních říší"
          ]
        }
      ]
    },
    "anotace": {
      "ucitel": "Cvičení seznamuje žáky s podobami rozvojové pomocí, již ČSSR poskytovala zemím v dekolonizované Africe. Zaměřuje se na únos československých občanů v Angole v roce 1983. Žáci analyzují dobové prameny, zejména rozhlasové zprávy. Při pátrání po příčinách události získají představu o dopadu studené války na proces dekolonizace Afriky.",
      "verejna": "Pojďte se ponořit do rozhlasových nahrávek a zjistit, co se v roce 1983 stalo v daleké Angole. A možná se dozvíte více o pomoci rozvojovým zemím a dekolonizaci Afriky."
    },
    "trvani": 45,
    "obtiznost": "vysoká",
    "funkce": [
      "lupa",
      "cteni",
      "text",
      "audio"
    ],
    "pdf": {
      "doporucenyPostup": "proc-byli-uneseni.pdf"
    },
    "uvodniObrazek": "proc-byli-uneseni/pic-01-1280w.jpg",
    "id": 24
  },
  "slajd": [
    {
      "zadani": {
        "hlavni": "Poslechněte si několik rozhlasových záznamů a prohlédněte si prameny v galerii.",
        "rozsirujici": "Pátrejte, co se stalo."
      },
      "napoveda": {
        "aktivity": [
          "audio"
        ],
        "text": ""
      },
      "media": {
        "nastaveni": {
          "vzhled": "normalni",
          "layout": "vertikalni"
        },
        "soubory": [
          {
            "soubor": "proc-byli-uneseni/audio-00.mp3",
            "nazev": "Oznámení o zadržení československých občanů v Angole",
            "popisek": "Rozhlasové noviny. Zdroj: Archiv ČRo."
          },
          {
            "soubor": "proc-byli-uneseni/audio-01.mp3",
            "nazev": "111 dnů — návrat našich spoluobčanů zadržovaných UNITOU v Angole",
            "popisek": "Lidé a svět. Zdroj: Archiv ČRo"
          },
          {
            "soubor": "proc-byli-uneseni/audio-02.mp3",
            "nazev": "Do vlasti se vrátila skupina zbylých 20 občanů zadržovaných organizací UNITA",
            "popisek": "Rozhlasové noviny. Zdroj: Archiv ČRo"
          }
        ],
        "galerie": [
          {
            "soubor": "proc-byli-uneseni/pic-00-1024h.jpg",
            "popisek": "„Naše mapka ukazuje cestu první části čs. občanů, osvobozených z rukou únosců ze základny UNITA na jihu Angoly, přes Johannesburg v Jihoafrické republice, zairskou Kinshasu a Káhiru do Prahy.” Zdroj: Rudé právo, 2. července 1983"
          },
          {
            "soubor": "proc-byli-uneseni/pic-01-1280w.jpg",
            "popisek": "1. července 1983 přiletělo na ruzyňské letiště v Praze 17 žen, 21 dětí a 7 mužů, první část skupiny čs. občanů, kteří byli uneseni 12. března 1983 příslušníky protivládní organizace UNITA. Zdroj: ČTK"
          },
          {
            "soubor": "proc-byli-uneseni/pic-02-1280w.jpg",
            "popisek": "23. června 1984 ráno se vrátilo do vlasti 20 československých občanů, kteří byli 12. března 1983 zajati organizací UNITA v Angolském městě Alto Catumbela. Zdroj: ČTK"
          }
        ]
      }
    },
    {
      "zadani": {
        "hlavni": "Prozkoumejte dobový tisk. Hledejte další informace.",
        "rozsirujici": ""
      },
      "napoveda": {
        "aktivity": [
          "audio"
        ],
        "text": ""
      },
      "media": {
        "nastaveni": {
          "vzhled": "normalni",
          "layout": "velka-galerie"
        },
        "soubory": [
          {
            "soubor": "proc-byli-uneseni/audio-00.mp3",
            "nazev": "Oznámení o zadržení československých občanů v Angole",
            "popisek": "Rozhlasové noviny, 15. března 1983. Zdroj: Archiv ČRo"
          },
          {
            "soubor": "proc-byli-uneseni/audio-01.mp3",
            "nazev": "111 dnů — návrat našich spoluobčanů zadržovaných UNITOU v Angole",
            "popisek": "Lidé a svět, 8. července 1983. Zdroj: Archiv ČRo"
          },
          {
            "soubor": "proc-byli-uneseni/audio-02.mp3",
            "nazev": "Do vlasti se vrátila skupina zbylých 20 občanů zadržovaných organizací UNITA",
            "popisek": "Rozhlasové noviny 23. června 1984. Zdroj: Archiv ČRo"
          }
        ],
        "galerie": [
          {
            "soubor": "proc-byli-uneseni/pic-03-1024h.jpg",
            "popisek": "Zdroj: Rudé právo. 2. července 1983"
          },
          {
            "soubor": "proc-byli-uneseni/pic-04-1280w.jpg",
            "popisek": "Zdroj: Rudé právo. 16. března 1983"
          },
          {
            "soubor": "proc-byli-uneseni/pic-05-1280w.jpg",
            "popisek": "Zdroj: Rudé právo. 16. března 1983"
          }
        ]
      }
    },
    {
      "zadani": {
        "hlavni": "Uspořádejte záznamy a fotografii podle časové osy. Popište události, jak šly za sebou.",
        "rozsirujici": ""
      },
      "napoveda": {
        "aktivity": [
          "razeni",
          "text"
        ],
        "text": "Kliknutím na fotografie či audio přehrávač a tahem myši přesuňte fotografii na požadovanou pozici mezi ostatní položky."
      },
      "razeni": {
        "id": "razeni-1",
        "zpetnaVazba": [
          {
            "podminka": 2,
            "text": "Opravdu? My jsme prameny uspořádali odlišně.",
            "barva": "color-red"
          },
          {
            "podminka": 1,
            "text": "Jeden pramen bychom uspořádali odlišně.",
            "barva": "color-orange"
          },
          {
            "podminka": 0,
            "text": "Výtečně. Uspořádali jsme prameny stejně.",
            "barva": "color-green"
          }
        ],
        "typ": "horizontalni",
        "objekty": [
          {
            "medium": "audio",
            "objekt": "proc-byli-uneseni/audio-00.mp3",
            "nazev": "Oznámení o zadržení československých občanů v Angole.",
            "spravnaOdpoved": "1"
          },
          {
            "medium": "audio",
            "objekt": "proc-byli-uneseni/audio-01.mp3",
            "nazev": "111 dnů — návrat našich spoluobčanů zadržovaných UNITOU v Angole.",
            "spravnaOdpoved": "3"
          },
          {
            "medium": "audio",
            "objekt": "proc-byli-uneseni/audio-02.mp3",
            "nazev": "Do vlasti se vrátila skupina zbylých 20 občanů zadržovaných organizací UNITA.",
            "spravnaOdpoved": "4"
          },
          {
            "medium": "obrazek",
            "objekt": "proc-byli-uneseni/pic-01-1280w.jpg",
            "spravnaOdpoved": "2"
          }
        ]
      },
      "uzivatelskyText": {
        "layout": "horizontalni",
        "otazky": [
          {
            "id": "text-1",
            "zadani": "",
            "instrukce": "Popište události…",
            "minDelka": 2,
            "maxDelka": 300,
            "vyska": 4
          },
          {
            "id": "text-2",
            "zadani": "",
            "instrukce": "Popište události…",
            "minDelka": 2,
            "maxDelka": 300,
            "vyska": 4
          },
          {
            "id": "text-3",
            "zadani": "",
            "instrukce": "Popište události…",
            "minDelka": 2,
            "maxDelka": 300,
            "vyska": 4
          },
          {
            "id": "text-4",
            "zadani": "",
            "instrukce": "Popište události…",
            "minDelka": 2,
            "maxDelka": 300,
            "vyska": 4
          }
        ]
      }
    },
    {
      "zadani": {
        "hlavni": "Proč byli uneseni?",
        "rozsirujici": ""
      },
      "napoveda": {
        "aktivity": [
          "text"
        ],
        "text": ""
      },
      "uzivatelskyText": {
        "otazky": [
          {
            "id": "text-5",
            "zadani": "Na základě zjištěných informací zodpovězte otázku, proč byli občané ČSSR uneseni.",
            "instrukce": "Myslím si, že…",
            "minDelka": 10,
            "maxDelka": 400
          }
        ]
      }
    }
  ]
}